chapter: 8 RによるSNSデータの分析 | 2021年度 データ分析入門
…
# search_tweets()関数で簡単にテキストを入手。
x <- search_tweets("女子バスケ", n = 500, include_rts = FALSE)

## 
Downloading [===============>-------------------------]  40%
Downloading [========================>----------------]  60%
Downloading [================================>--------]  80%
Downloading [=========================================] 100%

# アカウント名などを含めて表示
print(x)

## # A tibble: 499 x 90
##    user_id status_id created_at          screen_name text  source
##    <chr>   <chr>     <dttm>              <chr>       <chr> <chr> 
##  1 615693… 14333556… 2021-09-02 09:06:25 AiPad0701   "最近の… Twitt…
##  2 272661… 14333554… 2021-09-02 09:05:50 ShomaGanba  "バスケ… Twitt…
##  3 837930… 14333543… 2021-09-02 09:01:15 KR85914611  "みんな… Peing 
##  4 972064… 14333530… 2021-09-02 08:56:21 Ichigerc    "女子バ… Twitt…
##  5 101222… 14333528… 2021-09-02 08:55:18 Asa_asa_sp… "女子バ… Twitt…
##  6 124388… 14333526… 2021-09-02 08:54:42 Bettylong2  "女子バ… Twitt…
##  7 427108… 14333514… 2021-09-02 08:49:55 loverokku   "[定期… twitt…
##  8 427108… 14331397… 2021-09-01 18:48:32 loverokku   "[定期… twitt…
##  9 427108… 14327547… 2021-08-31 17:18:58 loverokku   "[定期… twitt…
## 10 427108… 14329362… 2021-09-01 05:19:56 loverokku   "[定期… twitt…
## # … with 489 more rows, and 84 more variables:
## #   display_text_width <dbl>, reply_to_status_id <chr>,
## #   reply_to_user_id <chr>, reply_to_screen_name <chr>,
## #   is_quote <lgl>, is_retweet <lgl>, favorite_count <int>,
## #   retweet_count <int>, quote_count <int>, reply_count <int>,
## #   hashtags <list>, symbols <list>, urls_url <list>,
## #   urls_t.co <list>, urls_expanded_url <list>, media_url <list>,
## #   media_t.co <list>, media_expanded_url <list>, media_type <list>,
## #   ext_media_url <list>, ext_media_t.co <list>,
…
# テキストだけを表示
x %>%
  select(text)

## # A tibble: 499 x 1
##    text                                                               
##    <chr>                                                              
##  1 "最近の癒しはマンキンと\n熱闘を繰り広げた日本女子バスケの方々が出演されている番組の録画を繰り返し観ること...\nコロナ禍ででき…
##  2 "バスケ女子　町田瑠唯ら所属の富士通がオータムカップ辞退　チーム内１人がコロナ陽性（デイリースポーツ） - Yahoo!ニュース h…
##  3 "みんなからの匿名質問を募集中！\n\nこんな質問に答えてるよ\n● 彼女つくんないの…\n● 中学の時可愛かった女子は？\n…\n…
##  4 "女子バスケ日本代表対トヨタ\nhttps://t.co/jd8ly7AIZx\n後半から見る。"…
##  5 "女子バスケの練習試合、日本代表vsトヨタ自動車。\n第1Q24-19、第2Q51-32、現在ハーフタイムです。\nスタッツ等がなく…
##  6 "女子バスケの知られざる歴史　日本初の試合に渋沢栄一貢献　飛鳥山の邸宅、庭を開放 (東京新聞) https://t.co/bewXn…
##  7 "[定期]黒子のバスケが大好きな腐女子です(^-^)v 黒バス以外にもボカロとか銀魂とかかけいおんとか大好きです♪まぁアニオタなので…
##  8 "[定期]黒子のバスケが大好きな腐女子です(^-^)v 黒バス以外にもボカロとか銀魂とかかけいおんとか大好きです♪まぁアニオタなので…
##  9 "[定期]黒子のバスケが大好きな腐女子です(^-^)v 黒バス以外にもボカロとか銀魂とかかけいおんとか大好きです♪まぁアニオタなので…
## 10 "[定期]黒子のバスケが大好きな腐女子です(^-^)v 黒バス以外にもボカロとか銀魂とかかけいおんとか大好きです♪まぁアニオタなので…
## # … with 489 more rows
…
